golden_RTLS/top.vcd
$date
	Sat Mar  5 20:14:32 2022
$end
$version
	Icarus Verilog
$end
$timescale
	1s
$end
$scope module top_tb $end
$var reg 1 ! clk $end
$var reg 1 " rstn $end
$var reg 1 # start $end
$var reg 32 $ vector_instruction [31:0] $end
$scope module uut $end
$var wire 1 ! clk $end
$var wire 1 " rstn $end
$var wire 1 # start $end
$var wire 32 % vector_instruction [31:0] $end
$var wire 3 & vsew [2:0] $end
$var wire 1 ' vm $end
$var wire 2 ( vlmul [1:0] $end
$var wire 2 ) vdiv [1:0] $end
$var wire 5 * rs2 [4:0] $end
$var wire 5 + rs1 [4:0] $end
$var wire 5 , rd [4:0] $end
$var wire 1 - is_vlen_op $end
$var wire 1 . is_load_store_op $end
$var wire 1 / is_alu_op $end
$var wire 5 0 address_s2_from_decoder [4:0] $end
$var wire 5 1 address_s1_from_decoder [4:0] $end
$var wire 5 2 address_destination_from_decoder [4:0] $end
$var wire 3 3 ALU_op_from_decoder [2:0] $end
$var reg 1 4 enable_decoder $end
$scope module U_controller $end
$var wire 1 ! clk $end
$var wire 1 " rstn $end
$var wire 1 - is_vlen_op $end
$var wire 1 . is_load_store_op $end
$var wire 1 / is_alu_op $end
$var wire 5 5 address_s2_from_decoder [4:0] $end
$var wire 5 6 address_s1_from_decoder [4:0] $end
$var wire 5 7 address_destination_from_decoder [4:0] $end
$var wire 3 8 ALU_op_from_decoder [2:0] $end
$var reg 4 9 ALU_Enable_for_lanes [3:0] $end
$var reg 1 : StartWriteMem $end
$var reg 5 ; addressIncrRead [4:0] $end
$var reg 5 < addressIncrWrite [4:0] $end
$var reg 3 = bank_no_vd [2:0] $end
$var reg 3 > bank_no_vs1 [2:0] $end
$var reg 3 ? bank_no_vs2 [2:0] $end
$var reg 1 @ doneAluOp $end
$var reg 5 A loopcount [4:0] $end
$var reg 1 B pipeline_StartWriteMem $end
$var reg 5 C starting_address_vd [4:0] $end
$var reg 5 D starting_address_vs1 [4:0] $end
$var reg 5 E starting_address_vs2 [4:0] $end
$var reg 16 F vtype [15:0] $end
$var integer 32 G DATABUS_WIDTH [31:0] $end
$var integer 32 H SEW [31:0] $end
$var integer 32 I VLEN [31:0] $end
$var integer 32 J ii [31:0] $end
$var integer 32 K num_lanes [31:0] $end
$var integer 32 L num_vector_iterations [31:0] $end
$scope begin lane[0] $end
$scope begin sram[0] $end
$scope module U_vector_register_file_sram_lane_bank $end
$var wire 7 M address [6:0] $end
$var wire 1 ! clk $end
$var wire 1 N cs $end
$var wire 64 O data [63:0] $end
$var wire 1 P oe $end
$var wire 1 Q we $end
$var reg 64 R data_out [63:0] $end
$var reg 1 S oe_r $end
$scope begin MEM_READ $end
$upscope $end
$scope begin MEM_WRITE $end
$upscope $end
$upscope $end
$upscope $end
$scope begin sram[1] $end
$scope module U_vector_register_file_sram_lane_bank $end
$var wire 7 T address [6:0] $end
$var wire 1 ! clk $end
$var wire 1 U cs $end
$var wire 64 V data [63:0] $end
$var wire 1 W oe $end
$var wire 1 X we $end
$var reg 64 Y data_out [63:0] $end
$var reg 1 Z oe_r $end
$scope begin MEM_READ $end
$upscope $end
$scope begin MEM_WRITE $end
$upscope $end
$upscope $end
$upscope $end
$scope begin sram[2] $end
$scope module U_vector_register_file_sram_lane_bank $end
$var wire 7 [ address [6:0] $end
$var wire 1 ! clk $end
$var wire 1 \ cs $end
$var wire 64 ] data [63:0] $end
$var wire 1 ^ oe $end
$var wire 1 _ we $end
$var reg 64 ` data_out [63:0] $end
$var reg 1 a oe_r $end
$scope begin MEM_READ $end
$upscope $end
$scope begin MEM_WRITE $end
$upscope $end
$upscope $end
$upscope $end
$scope begin sram[3] $end
$scope module U_vector_register_file_sram_lane_bank $end
$var wire 7 b address [6:0] $end
$var wire 1 ! clk $end
$var wire 1 c cs $end
$var wire 64 d data [63:0] $end
$var wire 1 e oe $end
$var wire 1 f we $end
$var reg 64 g data_out [63:0] $end
$var reg 1 h oe_r $end
$scope begin MEM_READ $end
$upscope $end
$scope begin MEM_WRITE $end
$upscope $end
$upscope $end
$upscope $end
$upscope $end
$scope begin lane[1] $end
$scope begin sram[0] $end
$scope module U_vector_register_file_sram_lane_bank $end
$var wire 7 i address [6:0] $end
$var wire 1 ! clk $end
$var wire 1 j cs $end
$var wire 64 k data [63:0] $end
$var wire 1 l oe $end
$var wire 1 m we $end
$var reg 64 n data_out [63:0] $end
$var reg 1 o oe_r $end
$scope begin MEM_READ $end
$upscope $end
$scope begin MEM_WRITE $end
$upscope $end
$upscope $end
$upscope $end
$scope begin sram[1] $end
$scope module U_vector_register_file_sram_lane_bank $end
$var wire 7 p address [6:0] $end
$var wire 1 ! clk $end
$var wire 1 q cs $end
$var wire 64 r data [63:0] $end
$var wire 1 s oe $end
$var wire 1 t we $end
$var reg 64 u data_out [63:0] $end
$var reg 1 v oe_r $end
$scope begin MEM_READ $end
$upscope $end
$scope begin MEM_WRITE $end
$upscope $end
$upscope $end
$upscope $end
$scope begin sram[2] $end
$scope module U_vector_register_file_sram_lane_bank $end
$var wire 7 w address [6:0] $end
$var wire 1 ! clk $end
$var wire 1 x cs $end
$var wire 64 y data [63:0] $end
$var wire 1 z oe $end
$var wire 1 { we $end
$var reg 64 | data_out [63:0] $end
$var reg 1 } oe_r $end
$scope begin MEM_READ $end
$upscope $end
$scope begin MEM_WRITE $end
$upscope $end
$upscope $end
$upscope $end
$scope begin sram[3] $end
$scope module U_vector_register_file_sram_lane_bank $end
$var wire 7 ~ address [6:0] $end
$var wire 1 ! clk $end
$var wire 1 !" cs $end
$var wire 64 "" data [63:0] $end
$var wire 1 #" oe $end
$var wire 1 $" we $end
$var reg 64 %" data_out [63:0] $end
$var reg 1 &" oe_r $end
$scope begin MEM_READ $end
$upscope $end
$scope begin MEM_WRITE $end
$upscope $end
$upscope $end
$upscope $end
$upscope $end
$scope begin lane[2] $end
$scope begin sram[0] $end
$scope module U_vector_register_file_sram_lane_bank $end
$var wire 7 '" address [6:0] $end
$var wire 1 ! clk $end
$var wire 1 (" cs $end
$var wire 64 )" data [63:0] $end
$var wire 1 *" oe $end
$var wire 1 +" we $end
$var reg 64 ," data_out [63:0] $end
$var reg 1 -" oe_r $end
$scope begin MEM_READ $end
$upscope $end
$scope begin MEM_WRITE $end
$upscope $end
$upscope $end
$upscope $end
$scope begin sram[1] $end
$scope module U_vector_register_file_sram_lane_bank $end
$var wire 7 ." address [6:0] $end
$var wire 1 ! clk $end
$var wire 1 /" cs $end
$var wire 64 0" data [63:0] $end
$var wire 1 1" oe $end
$var wire 1 2" we $end
$var reg 64 3" data_out [63:0] $end
$var reg 1 4" oe_r $end
$scope begin MEM_READ $end
$upscope $end
$scope begin MEM_WRITE $end
$upscope $end
$upscope $end
$upscope $end
$scope begin sram[2] $end
$scope module U_vector_register_file_sram_lane_bank $end
$var wire 7 5" address [6:0] $end
$var wire 1 ! clk $end
$var wire 1 6" cs $end
$var wire 64 7" data [63:0] $end
$var wire 1 8" oe $end
$var wire 1 9" we $end
$var reg 64 :" data_out [63:0] $end
$var reg 1 ;" oe_r $end
$scope begin MEM_READ $end
$upscope $end
$scope begin MEM_WRITE $end
$upscope $end
$upscope $end
$upscope $end
$scope begin sram[3] $end
$scope module U_vector_register_file_sram_lane_bank $end
$var wire 7 <" address [6:0] $end
$var wire 1 ! clk $end
$var wire 1 =" cs $end
$var wire 64 >" data [63:0] $end
$var wire 1 ?" oe $end
$var wire 1 @" we $end
$var reg 64 A" data_out [63:0] $end
$var reg 1 B" oe_r $end
$scope begin MEM_READ $end
$upscope $end
$scope begin MEM_WRITE $end
$upscope $end
$upscope $end
$upscope $end
$upscope $end
$scope begin lane[3] $end
$scope begin sram[0] $end
$scope module U_vector_register_file_sram_lane_bank $end
$var wire 7 C" address [6:0] $end
$var wire 1 ! clk $end
$var wire 1 D" cs $end
$var wire 64 E" data [63:0] $end
$var wire 1 F" oe $end
$var wire 1 G" we $end
$var reg 64 H" data_out [63:0] $end
$var reg 1 I" oe_r $end
$scope begin MEM_READ $end
$upscope $end
$scope begin MEM_WRITE $end
$upscope $end
$upscope $end
$upscope $end
$scope begin sram[1] $end
$scope module U_vector_register_file_sram_lane_bank $end
$var wire 7 J" address [6:0] $end
$var wire 1 ! clk $end
$var wire 1 K" cs $end
$var wire 64 L" data [63:0] $end
$var wire 1 M" oe $end
$var wire 1 N" we $end
$var reg 64 O" data_out [63:0] $end
$var reg 1 P" oe_r $end
$scope begin MEM_READ $end
$upscope $end
$scope begin MEM_WRITE $end
$upscope $end
$upscope $end
$upscope $end
$scope begin sram[2] $end
$scope module U_vector_register_file_sram_lane_bank $end
$var wire 7 Q" address [6:0] $end
$var wire 1 ! clk $end
$var wire 1 R" cs $end
$var wire 64 S" data [63:0] $end
$var wire 1 T" oe $end
$var wire 1 U" we $end
$var reg 64 V" data_out [63:0] $end
$var reg 1 W" oe_r $end
$scope begin MEM_READ $end
$upscope $end
$scope begin MEM_WRITE $end
$upscope $end
$upscope $end
$upscope $end
$scope begin sram[3] $end
$scope module U_vector_register_file_sram_lane_bank $end
$var wire 7 X" address [6:0] $end
$var wire 1 ! clk $end
$var wire 1 Y" cs $end
$var wire 64 Z" data [63:0] $end
$var wire 1 [" oe $end
$var wire 1 \" we $end
$var reg 64 ]" data_out [63:0] $end
$var reg 1 ^" oe_r $end
$scope begin MEM_READ $end
$upscope $end
$scope begin MEM_WRITE $end
$upscope $end
$upscope $end
$upscope $end
$upscope $end
$scope module U_alu0 $end
$var wire 1 ! clk $end
$var wire 1 _" enable_alu $end
$var wire 3 `" num_bits_to_operate [2:0] $end
$var wire 3 a" operation [2:0] $end
$var wire 1 b" rstn $end
$var wire 64 c" c [63:0] $end
$var wire 64 d" b [63:0] $end
$var wire 64 e" a [63:0] $end
$var reg 64 f" out [63:0] $end
$upscope $end
$scope module U_alu1 $end
$var wire 1 ! clk $end
$var wire 1 g" enable_alu $end
$var wire 3 h" num_bits_to_operate [2:0] $end
$var wire 3 i" operation [2:0] $end
$var wire 1 j" rstn $end
$var wire 64 k" c [63:0] $end
$var wire 64 l" b [63:0] $end
$var wire 64 m" a [63:0] $end
$var reg 64 n" out [63:0] $end
$upscope $end
$scope module U_alu2 $end
$var wire 1 ! clk $end
$var wire 1 o" enable_alu $end
$var wire 3 p" num_bits_to_operate [2:0] $end
$var wire 3 q" operation [2:0] $end
$var wire 1 r" rstn $end
$var wire 64 s" c [63:0] $end
$var wire 64 t" b [63:0] $end
$var wire 64 u" a [63:0] $end
$var reg 64 v" out [63:0] $end
$upscope $end
$scope module U_alu3 $end
$var wire 1 ! clk $end
$var wire 1 w" enable_alu $end
$var wire 3 x" num_bits_to_operate [2:0] $end
$var wire 3 y" operation [2:0] $end
$var wire 1 z" rstn $end
$var wire 64 {" c [63:0] $end
$var wire 64 |" b [63:0] $end
$var wire 64 }" a [63:0] $end
$var reg 64 ~" out [63:0] $end
$upscope $end
$scope module U_mux_lane0_A_input $end
$var wire 64 !# X1 [63:0] $end
$var wire 64 "# X2 [63:0] $end
$var wire 64 ## X3 [63:0] $end
$var wire 64 $# X4 [63:0] $end
$var wire 2 %# select [1:0] $end
$var reg 64 &# q [63:0] $end
$upscope $end
$scope module U_mux_lane0_B_input $end
$var wire 64 '# X1 [63:0] $end
$var wire 64 (# X2 [63:0] $end
$var wire 64 )# X3 [63:0] $end
$var wire 64 *# X4 [63:0] $end
$var wire 2 +# select [1:0] $end
$var reg 64 ,# q [63:0] $end
$upscope $end
$scope module U_mux_lane0_C_input $end
$var wire 64 -# X1 [63:0] $end
$var wire 64 .# X2 [63:0] $end
$var wire 64 /# X3 [63:0] $end
$var wire 64 0# X4 [63:0] $end
$var wire 2 1# select [1:0] $end
$var reg 64 2# q [63:0] $end
$upscope $end
$scope module U_mux_lane1_A_input $end
$var wire 64 3# X1 [63:0] $end
$var wire 64 4# X2 [63:0] $end
$var wire 64 5# X3 [63:0] $end
$var wire 64 6# X4 [63:0] $end
$var wire 2 7# select [1:0] $end
$var reg 64 8# q [63:0] $end
$upscope $end
$scope module U_mux_lane1_B_input $end
$var wire 64 9# X1 [63:0] $end
$var wire 64 :# X2 [63:0] $end
$var wire 64 ;# X3 [63:0] $end
$var wire 64 <# X4 [63:0] $end
$var wire 2 =# select [1:0] $end
$var reg 64 ># q [63:0] $end
$upscope $end
$scope module U_mux_lane1_C_input $end
$var wire 64 ?# X1 [63:0] $end
$var wire 64 @# X2 [63:0] $end
$var wire 64 A# X3 [63:0] $end
$var wire 64 B# X4 [63:0] $end
$var wire 2 C# select [1:0] $end
$var reg 64 D# q [63:0] $end
$upscope $end
$scope module U_mux_lane2_A_input $end
$var wire 64 E# X1 [63:0] $end
$var wire 64 F# X2 [63:0] $end
$var wire 64 G# X3 [63:0] $end
$var wire 64 H# X4 [63:0] $end
$var wire 2 I# select [1:0] $end
$var reg 64 J# q [63:0] $end
$upscope $end
$scope module U_mux_lane2_B_input $end
$var wire 64 K# X1 [63:0] $end
$var wire 64 L# X2 [63:0] $end
$var wire 64 M# X3 [63:0] $end
$var wire 64 N# X4 [63:0] $end
$var wire 2 O# select [1:0] $end
$var reg 64 P# q [63:0] $end
$upscope $end
$scope module U_mux_lane2_C_input $end
$var wire 64 Q# X1 [63:0] $end
$var wire 64 R# X2 [63:0] $end
$var wire 64 S# X3 [63:0] $end
$var wire 64 T# X4 [63:0] $end
$var wire 2 U# select [1:0] $end
$var reg 64 V# q [63:0] $end
$upscope $end
$scope module U_mux_lane3_A_input $end
$var wire 64 W# X1 [63:0] $end
$var wire 64 X# X2 [63:0] $end
$var wire 64 Y# X3 [63:0] $end
$var wire 64 Z# X4 [63:0] $end
$var wire 2 [# select [1:0] $end
$var reg 64 \# q [63:0] $end
$upscope $end
$scope module U_mux_lane3_B_input $end
$var wire 64 ]# X1 [63:0] $end
$var wire 64 ^# X2 [63:0] $end
$var wire 64 _# X3 [63:0] $end
$var wire 64 `# X4 [63:0] $end
$var wire 2 a# select [1:0] $end
$var reg 64 b# q [63:0] $end
$upscope $end
$scope module U_mux_lane3_C_input $end
$var wire 64 c# X1 [63:0] $end
$var wire 64 d# X2 [63:0] $end
$var wire 64 e# X3 [63:0] $end
$var wire 64 f# X4 [63:0] $end
$var wire 2 g# select [1:0] $end
$var reg 64 h# q [63:0] $end
$upscope $end
$upscope $end
$scope module U_decoder $end
$var wire 1 ! clk $end
$var wire 1 4 enable $end
$var wire 1 " rstn $end
$var wire 32 i# vector_instruction [31:0] $end
$var reg 3 j# ALU_op_from_decoder [2:0] $end
$var reg 5 k# address_destination_from_decoder [4:0] $end
$var reg 5 l# address_s1_from_decoder [4:0] $end
$var reg 5 m# address_s2_from_decoder [4:0] $end
$var reg 1 / is_alu_op $end
$var reg 1 . is_load_store_op $end
$var reg 1 - is_vlen_op $end
$var reg 5 n# rd [4:0] $end
$var reg 5 o# rs1 [4:0] $end
$var reg 5 p# rs2 [4:0] $end
$var reg 2 q# vdiv [1:0] $end
$var reg 2 r# vlmul [1:0] $end
$var reg 1 ' vm $end
$var reg 3 s# vsew [2:0] $end
$upscope $end
$upscope $end
$upscope $end
$enddefinitions $end
#0
$dumpvars
bx s#
bx r#
bx q#
bx p#
bx o#
bx n#
bx m#
bx l#
bx k#
bx j#
bx i#
bx h#
bx g#
bx f#
bx e#
bx d#
bx c#
bx b#
bx a#
bx `#
bx _#
bx ^#
bx ]#
bx \#
bx [#
bx Z#
bx Y#
bx X#
bx W#
bx V#
bx U#
bx T#
bx S#
bx R#
bx Q#
bx P#
bx O#
bx N#
bx M#
bx L#
bx K#
bx J#
bx I#
bx H#
bx G#
bx F#
bx E#
bx D#
bx C#
bx B#
bx A#
bx @#
bx ?#
bx >#
bx =#
bx <#
bx ;#
bx :#
bx 9#
bx 8#
bx 7#
bx 6#
bx 5#
bx 4#
bx 3#
bx 2#
bx 1#
bx 0#
bx /#
bx .#
bx -#
bx ,#
bx +#
bx *#
bx )#
bx (#
bx '#
bx &#
bx %#
bx $#
bx ##
bx "#
bx !#
bx ~"
bx }"
bx |"
bx {"
zz"
bx y"
bx x"
xw"
bx v"
bx u"
bx t"
bx s"
zr"
bx q"
bx p"
xo"
bx n"
bx m"
bx l"
bx k"
zj"
bx i"
bx h"
xg"
bx f"
bx e"
bx d"
bx c"
zb"
bx a"
bx `"
x_"
x^"
bx ]"
x\"
x["
bx Z"
xY"
bx X"
xW"
bx V"
xU"
xT"
bx S"
xR"
bx Q"
xP"
bx O"
xN"
xM"
bx L"
xK"
bx J"
xI"
bx H"
xG"
xF"
bx E"
xD"
bx C"
xB"
bx A"
x@"
x?"
bx >"
x="
bx <"
x;"
bx :"
x9"
x8"
bx 7"
x6"
bx 5"
x4"
bx 3"
x2"
x1"
bx 0"
x/"
bx ."
x-"
bx ,"
x+"
x*"
bx )"
x("
bx '"
x&"
bx %"
x$"
x#"
bx ""
x!"
bx ~
x}
bx |
x{
xz
bx y
xx
bx w
xv
bx u
xt
xs
bx r
xq
bx p
xo
bx n
xm
xl
bx k
xj
bx i
xh
bx g
xf
xe
bx d
xc
bx b
xa
bx `
x_
x^
bx ]
x\
bx [
xZ
bx Y
xX
xW
bx V
xU
bx T
xS
bx R
xQ
xP
bx O
xN
bx M
bx L
b100 K
bx J
b100000000 I
bx H
b1000000 G
bx F
bx E
bx D
bx C
xB
bx A
x@
bx ?
bx >
bx =
bx <
bx ;
x:
bx 9
bx 8
bx 7
bx 6
bx 5
x4
bx 3
bx 2
bx 1
bx 0
x/
x.
x-
bx ,
bx +
bx *
bx )
bx (
x'
bx &
bx %
bx $
x#
x"
0!
$end
#5
0^"
0W"
0P"
0I"
0B"
0;"
04"
0-"
0&"
0}
0v
0o
0h
0a
0Z
0S
1!
#10
04
0B
0:
b0 <
b0 ;
0@
b0 A
b0zzzzzzzzzzzzzzzzzzzzzzzzzzzzzzzz E"
b0zzzzzzzzzzzzzzzzzzzzzzzzzzzzzzzz W#
b0zzzzzzzzzzzzzzzzzzzzzzzzzzzzzzzz L"
b0zzzzzzzzzzzzzzzzzzzzzzzzzzzzzzzz X#
b0zzzzzzzzzzzzzzzzzzzzzzzzzzzzzzzz ]#
b0zzzzzzzzzzzzzzzzzzzzzzzzzzzzzzzz ^#
b0zzzzzzzzzzzzzzzzzzzzzzzzzzzzzzzz d#
b0zzzzzzzzzzzzzzzzzzzzzzzzzzzzzzzz S"
b0zzzzzzzzzzzzzzzzzzzzzzzzzzzzzzzz Y#
b0zzzzzzzzzzzzzzzzzzzzzzzzzzzzzzzz _#
b0zzzzzzzzzzzzzzzzzzzzzzzzzzzzzzzz c#
b0zzzzzzzzzzzzzzzzzzzzzzzzzzzzzzzz e#
b0zzzzzzzzzzzzzzzzzzzzzzzzzzzzzzzz Z"
b0zzzzzzzzzzzzzzzzzzzzzzzzzzzzzzzz Z#
b0zzzzzzzzzzzzzzzzzzzzzzzzzzzzzzzz `#
b0zzzzzzzzzzzzzzzzzzzzzzzzzzzzzzzz f#
b0zzzzzzzzzzzzzzzzzzzzzzzzzzzzzzzz )"
b0zzzzzzzzzzzzzzzzzzzzzzzzzzzzzzzz E#
b0zzzzzzzzzzzzzzzzzzzzzzzzzzzzzzzz 0"
b0zzzzzzzzzzzzzzzzzzzzzzzzzzzzzzzz F#
b0zzzzzzzzzzzzzzzzzzzzzzzzzzzzzzzz K#
b0zzzzzzzzzzzzzzzzzzzzzzzzzzzzzzzz L#
b0zzzzzzzzzzzzzzzzzzzzzzzzzzzzzzzz R#
b0zzzzzzzzzzzzzzzzzzzzzzzzzzzzzzzz 7"
b0zzzzzzzzzzzzzzzzzzzzzzzzzzzzzzzz G#
b0zzzzzzzzzzzzzzzzzzzzzzzzzzzzzzzz M#
b0zzzzzzzzzzzzzzzzzzzzzzzzzzzzzzzz Q#
b0zzzzzzzzzzzzzzzzzzzzzzzzzzzzzzzz S#
b0zzzzzzzzzzzzzzzzzzzzzzzzzzzzzzzz >"
b0zzzzzzzzzzzzzzzzzzzzzzzzzzzzzzzz H#
b0zzzzzzzzzzzzzzzzzzzzzzzzzzzzzzzz N#
b0zzzzzzzzzzzzzzzzzzzzzzzzzzzzzzzz T#
b0zzzzzzzzzzzzzzzzzzzzzzzzzzzzzzzz k
b0zzzzzzzzzzzzzzzzzzzzzzzzzzzzzzzz 3#
b0zzzzzzzzzzzzzzzzzzzzzzzzzzzzzzzz r
b0zzzzzzzzzzzzzzzzzzzzzzzzzzzzzzzz 4#
b0zzzzzzzzzzzzzzzzzzzzzzzzzzzzzzzz 9#
b0zzzzzzzzzzzzzzzzzzzzzzzzzzzzzzzz :#
b0zzzzzzzzzzzzzzzzzzzzzzzzzzzzzzzz @#
b0zzzzzzzzzzzzzzzzzzzzzzzzzzzzzzzz y
b0zzzzzzzzzzzzzzzzzzzzzzzzzzzzzzzz 5#
b0zzzzzzzzzzzzzzzzzzzzzzzzzzzzzzzz ;#
b0zzzzzzzzzzzzzzzzzzzzzzzzzzzzzzzz ?#
b0zzzzzzzzzzzzzzzzzzzzzzzzzzzzzzzz A#
b0zzzzzzzzzzzzzzzzzzzzzzzzzzzzzzzz ""
b0zzzzzzzzzzzzzzzzzzzzzzzzzzzzzzzz 6#
b0zzzzzzzzzzzzzzzzzzzzzzzzzzzzzzzz <#
b0zzzzzzzzzzzzzzzzzzzzzzzzzzzzzzzz B#
b0zzzzzzzzzzzzzzzzzzzzzzzzzzzzzzzz O
b0zzzzzzzzzzzzzzzzzzzzzzzzzzzzzzzz !#
b0zzzzzzzzzzzzzzzzzzzzzzzzzzzzzzzz '#
b0zzzzzzzzzzzzzzzzzzzzzzzzzzzzzzzz -#
b0zzzzzzzzzzzzzzzzzzzzzzzzzzzzzzzz V
b0zzzzzzzzzzzzzzzzzzzzzzzzzzzzzzzz "#
b0zzzzzzzzzzzzzzzzzzzzzzzzzzzzzzzz (#
b0zzzzzzzzzzzzzzzzzzzzzzzzzzzzzzzz .#
b0zzzzzzzzzzzzzzzzzzzzzzzzzzzzzzzz ]
b0zzzzzzzzzzzzzzzzzzzzzzzzzzzzzzzz ##
b0zzzzzzzzzzzzzzzzzzzzzzzzzzzzzzzz )#
b0zzzzzzzzzzzzzzzzzzzzzzzzzzzzzzzz /#
b0zzzzzzzzzzzzzzzzzzzzzzzzzzzzzzzz d
b0zzzzzzzzzzzzzzzzzzzzzzzzzzzzzzzz $#
b0zzzzzzzzzzzzzzzzzzzzzzzzzzzzzzzz *#
b0zzzzzzzzzzzzzzzzzzzzzzzzzzzzzzzz 0#
0D"
0K"
0R"
0Y"
0F"
0M"
0T"
0["
0G"
0N"
0U"
0\"
0("
0/"
06"
0="
0*"
01"
08"
0?"
0+"
02"
09"
0@"
0j
0q
0x
0!"
0l
0s
0z
0#"
0m
0t
0{
0$"
0N
0U
0\
0c
0P
0W
0^
0e
0Q
0X
0_
0f
0_"
0g"
0o"
0w"
0-
0.
0/
b0 *
b0 p#
b0 +
b0 o#
b0 ,
b0 n#
b0 )
b0 q#
b0 (
b0 r#
b0 &
b0 s#
b0 3
b0 8
b0 j#
b0 2
b0 7
b0 k#
b0 0
b0 5
b0 m#
b0 1
b0 6
b0 l#
b100 J
bx00000000 F
b0 y"
b0 q"
b0 i"
b0 a"
b0 9
0!
0"
#15
b100 J
1!
#20
0!
#25
b100 J
1!
#26
1#
1"
#30
0!
#31
b10101000101000101001010111 $
b10101000101000101001010111 %
b10101000101000101001010111 i#
#35
1B
b1 ;
b1 A
b10100 2
b10100 7
b10100 k#
b1010 0
b1010 5
b1010 m#
b101 1
b101 6
b101 l#
1'
14
b0xxxxxxxx f"
b0zzzzzzzzzzzzzzzzzzzzzzzzzzzzzzzz {"
b0zzzzzzzzzzzzzzzzzzzzzzzzzzzzzzzz h#
b0zzzzzzzzzzzzzzzzzzzzzzzzzzzzzzzz |"
b0zzzzzzzzzzzzzzzzzzzzzzzzzzzzzzzz b#
b0zzzzzzzzzzzzzzzzzzzzzzzzzzzzzzzz }"
b0zzzzzzzzzzzzzzzzzzzzzzzzzzzzzzzz \#
b0zzzzzzzzzzzzzzzzzzzzzzzzzzzzzzzz s"
b0zzzzzzzzzzzzzzzzzzzzzzzzzzzzzzzz V#
b0zzzzzzzzzzzzzzzzzzzzzzzzzzzzzzzz t"
b0zzzzzzzzzzzzzzzzzzzzzzzzzzzzzzzz P#
b0zzzzzzzzzzzzzzzzzzzzzzzzzzzzzzzz u"
b0zzzzzzzzzzzzzzzzzzzzzzzzzzzzzzzz J#
b0zzzzzzzzzzzzzzzzzzzzzzzzzzzzzzzz k"
b0zzzzzzzzzzzzzzzzzzzzzzzzzzzzzzzz D#
b0zzzzzzzzzzzzzzzzzzzzzzzzzzzzzzzz l"
b0zzzzzzzzzzzzzzzzzzzzzzzzzzzzzzzz >#
b0zzzzzzzzzzzzzzzzzzzzzzzzzzzzzzzz m"
b0zzzzzzzzzzzzzzzzzzzzzzzzzzzzzzzz 8#
b0zzzzzzzzzzzzzzzzzzzzzzzzzzzzzzzz c"
b0zzzzzzzzzzzzzzzzzzzzzzzzzzzzzzzz 2#
b0zzzzzzzzzzzzzzzzzzzzzzzzzzzzzzzz d"
b0zzzzzzzzzzzzzzzzzzzzzzzzzzzzzzzz ,#
b0zzzzzzzzzzzzzzzzzzzzzzzzzzzzzzzz e"
b0zzzzzzzzzzzzzzzzzzzzzzzzzzzzzzzz &#
1_"
b100000 L
b0 C
b0 E
b0 D
b0 g#
b0 a#
b0 [#
b0 U#
b0 O#
b0 I#
b0 C#
b0 =#
b0 7#
b0 1#
b0 +#
b0 %#
b100 J
b1 9
b0 =
b0 ?
b0 >
b0 x"
b0 p"
b0 h"
b0 `"
b1000 H
1/
b1010 *
b1010 p#
b101 +
b101 o#
b10100 ,
b10100 n#
1!
#40
0!
#45
1:
b10 ;
b10 A
bx |"
bx b#
bx t"
bx P#
bx l"
bx >#
bx }"
bx \#
bx u"
bx J#
bx m"
bx 8#
bx e"
bx &#
bx d"
bx ,#
bx c"
bx 2#
bx L"
bx X#
bx ]#
bx ^#
bx d#
bx 0"
bx F#
bx K#
bx L#
bx R#
bx r
bx 4#
bx 9#
bx :#
bx @#
bx V
bx "#
bx (#
bx .#
bx E"
bx W#
bx )"
bx E#
bx k
bx 3#
bx O
bx !#
bx '#
bx -#
1K"
1M"
1/"
11"
1q
1s
1U
1W
1D"
1F"
1("
1*"
1j
1l
1N
1P
b10001 J"
b1001 C"
b10001 ."
b1001 '"
b10001 p
b1001 i
b1001 T
b1001 M
b10000 E
b1000 D
b1 a#
b1 O#
b1 =#
b1 +#
b100 J
b10 =
b1 ?
1!
#50
0!
